{
  "type": "service_account",
  "project_id": "medium-291912",
  "private_key_id": "4dd5988fac87ddd16f63c6cb2319d1625b0b4b75",
  "private_key": "-----BEGIN PRIVATE KEY-----\nMIIEvgIBADANBgkqhkiG9w0BAQEFAASCBKgwggSkAgEAAoIBAQCenXQ0JJPqQ9Ri\ntowMPxklaQKvN6iqWJ/akBjjO5NUVO2UI3sNsOQEPp+2iHmDf/5pWaDWZ9Ecu+CG\nPMZQhBt7ch0HMQd/+DH8wZkskzNLYtz53TGRH5MRhEFie7nfU5Ysg635YLo2BDLt\nNsB5IAULnRP6LLuutGCY/Af1pBsTnj3wqjeW9H78DF425f5bgjc8cwUPr6QUXroa\nv6RnFfMDk5NCkXqPC9IxN7d2FsBpTFLBKtFwrzlBMWUmJxaBBsWt1Nabc5HdLsx8\nYS8jKd5N5lsQZqzQL0kDZiPJyA9D+tBEtrWGxGaaz039RbWuUDtNafwGSV0NuUfb\nyzO6Zu4JAgMBAAECggEAFs3X5FxC6NoeKaAJpAQZWyvND0BvDyilOODhNyA8VxJL\nwvHT8fy115diUnWuFLYc72wLp++unJU1W09XCsHnipi2LC/EHoWiOC7kVQiHxiWd\nVA4VX4I83HaZiO11ZHKJw3YeF92sf/IcGUc3JmLwXsJTWjM+u4gi4DPR+CLDIs9y\nMaf26v6oqnll+4vsAyrTPzbvP3FFCujjw66REsiusKvifSvPeylgmR5plJmlQifA\nENpEZcfP7A+KAL9YOQ70C6kvhskP8+gpj4ATMrYIU//NyHSd6M2f96JT11RLqpLD\nMDiKyQsIU0liNr4j/EjzeKQz7fV3ivCAwYBxFbtClQKBgQDLtdss/9pFpozKfW3Y\naM4ELroJCw+1LIH7oW9iPNIIwIOYOvSYuthJjqJz0RbkB//MjhDoArQfU18k5HPq\nOJPbKNE/mEZiW6wLO4WSx7GcJ7EHN0TR+ByFWsO+D0SkZOVRMziUSQdB4swu0BYb\niPmEU15WQwYmvQGOpMhfwC6btQKBgQDHVE9eaPPbHou62bO3XWWls7YNFz4Ix657\nm3M4DiM+gzHNc3R2iVGOV0Ez1NbWod4X+B7J7orWVYr0tdBapNyoaZtoxTMvAQyU\nvrKUPwRMAtDvO0rbjzW+qMTc5Agiitidj10hzXi/SRfHDgowpBnQSiTYc0VYTqNQ\nT/tAiv+FhQKBgQCwZCwA7xplrS3EOI/hD/80B/H22qkjTALRjJwSCHAmO+y26HXb\nug6GwwdQGgEkOvj4exuQiqbFaT+9hkQI0CzXXKSz2Hs5t/9lSokC6/+TI5takDT7\nS0gHAOz1qeraHrOieCPJ4uJx3pzG/E/oT9cfCcFqGGc/K/IpPe5zWsoA8QKBgQC1\n4u8RvT9X4UWr2N+vIKCSVax3wY+vv1YuIKlAq1Xpwxl82i+ZwrAS7Pfobf0kmUvq\nH1Uo+mziK+jCZ+2Z6PoZC1Tug5Oy/ogWavTVZbNsEN3KjxY9xy5JrgMFdWce7ge/\nroRTRgU6t13lG6CcxgFwGVgJ0xWiAQ/xRyqDuNJ1aQKBgHGoJbmV7gyapyEREiGL\niFLaFFEKK6AwwjDnXS1GAjuB25dMSNeQGHmvN7r0HXkQ8W0SHUpR735l7HAX2Pwh\n53Ff1jv/oSA4QvbV03B0bN3jLhXcgz6KiCgCrJaRorTg3da6OlB07OK7ByPOFY4r\n8LDtun2MdNlgnG8+2/Os23VC\n-----END PRIVATE KEY-----\n",
  "client_email": "owner-86@medium-291912.iam.gserviceaccount.com",
  "client_id": "109802788334144284164",
  "auth_uri": "https://accounts.google.com/o/oauth2/auth",
  "token_uri": "https://oauth2.googleapis.com/token",
  "auth_provider_x509_cert_url": "https://www.googleapis.com/oauth2/v1/certs",
  "client_x509_cert_url": "https://www.googleapis.com/robot/v1/metadata/x509/owner-86%40medium-291912.iam.gserviceaccount.com"
}
